Introduction to Data Science
…
---
class: clear, animated, bounceInDown
We shall follow an an abbreviated presentation from Chapter 5 of [R for data science](https://r4ds.had.co.nz/). 

We first load the *flights13* dataset from the **nycflights13** package. This dataset describe the on-time data for all flights departing from NYC airports (i.e. JFK, LGA or EWA) in 2013.

```r
library(tidyverse)
library(nycflights13)
data(flights)
flights
```

```
## # A tibble: 336,776 x 19
##    year month   day dep_time sched_dep_time dep_delay arr_time
##   <int> <int> <int>    <int>          <int>     <dbl>    <int>
## 1  2013     1     1      517            515         2      830
## 2  2013     1     1      533            529         4      850
## 3  2013     1     1      542            540         2      923
## 4  2013     1     1      544            545        -1     1004
## 5  2013     1     1      554            600        -6      812
## 6  2013     1     1      554            558        -4      740
## # … with 336,770 more rows, and 12 more variables:
## #   sched_arr_time <int>, arr_delay <dbl>, carrier <chr>,
## #   flight <int>, tailnum <chr>, origin <chr>, dest <chr>,
## #   air_time <dbl>, distance <dbl>, hour <dbl>, minute <dbl>,
## #   time_hour <dttm>
```
---
class: header_background
#filter()
Let us find flights departing NYC on August 21. Note that **dplyr** verbs takes a data frame and returns a new data frame.

```r
filter(flights, month == 8, day == 21)
```

```
## # A tibble: 990 x 19
##    year month   day dep_time sched_dep_time dep_delay arr_time
##   <int> <int> <int>    <int>          <int>     <dbl>    <int>
## 1  2013     8    21       10           2359        11      350
## 2  2013     8    21       36           2359        37      413
## 3  2013     8    21       48           1620       508      251
## 4  2013     8    21      453            500        -7      634
## 5  2013     8    21      528            530        -2      757
## 6  2013     8    21      536            545        -9      808
## # … with 984 more rows, and 12 more variables: sched_arr_time <int>,
## #   arr_delay <dbl>, carrier <chr>, flight <int>, tailnum <chr>,
## #   origin <chr>, dest <chr>, air_time <dbl>, distance <dbl>,
## #   hour <dbl>, minute <dbl>, time_hour <dttm>
```

```r
## Equivalently: filter(flights, month == 8 & day == 21)
```
---
class: clear
Next, let us try to filter flights from August 21, 2013 that departs from either JFK or LGA.

```r
august21 <- filter(flights, month == 8 & day == 21)
filter(august21, origin == 'JFK' | origin == 'LGA') 
```

```
## # A tibble: 637 x 19
##    year month   day dep_time sched_dep_time dep_delay arr_time
##   <int> <int> <int>    <int>          <int>     <dbl>    <int>
## 1  2013     8    21       10           2359        11      350
## 2  2013     8    21       36           2359        37      413
## 3  2013     8    21       48           1620       508      251
## 4  2013     8    21      536            545        -9      808
## 5  2013     8    21      540            540         0      837
## 6  2013     8    21      544            545        -1      911
## # … with 631 more rows, and 12 more variables: sched_arr_time <int>,
## #   arr_delay <dbl>, carrier <chr>, flight <int>, tailnum <chr>,
## #   origin <chr>, dest <chr>, air_time <dbl>, distance <dbl>,
## #   hour <dbl>, minute <dbl>, time_hour <dttm>
```

```r
## Equivalently: filter(august21, origin %in% c("JFK","LGA"))
```
---
class: clear
Let us now check, among all the flights on August 21 from either JFK or LGA, which of them has a departure or arrival delay of 10 minutes or more.

```r
august21_jfk_lga <- filter(august21, origin %in% c("JFK","LGA"))
filter(august21_jfk_lga, arr_delay > 10 | dep_delay > 10)
```

```
## # A tibble: 106 x 19
##    year month   day dep_time sched_dep_time dep_delay arr_time
##   <int> <int> <int>    <int>          <int>     <dbl>    <int>
## 1  2013     8    21       10           2359        11      350
## 2  2013     8    21       36           2359        37      413
## 3  2013     8    21       48           1620       508      251
## 4  2013     8    21      555            600        -5      839
## 5  2013     8    21      558            600        -2      830
## 6  2013     8    21      625            600        25      903
## # … with 100 more rows, and 12 more variables: sched_arr_time <int>,
## #   arr_delay <dbl>, carrier <chr>, flight <int>, tailnum <chr>,
## #   origin <chr>, dest <chr>, air_time <dbl>, distance <dbl>,
## #   hour <dbl>, minute <dbl>, time_hour <dttm>
```
---
class: clear
We can do all of the above filtering using a single chain sequence as follows

```r
flights %>% filter(month == 8 & day == 21) %>% 
            filter(origin %in% c("JFK","LGA")) %>%
            filter(arr_delay > 10 | dep_delay > 10)
```

```
## # A tibble: 106 x 19
##    year month   day dep_time sched_dep_time dep_delay arr_time
##   <int> <int> <int>    <int>          <int>     <dbl>    <int>
## 1  2013     8    21       10           2359        11      350
## 2  2013     8    21       36           2359        37      413
## 3  2013     8    21       48           1620       508      251
## 4  2013     8    21      555            600        -5      839
## 5  2013     8    21      558            600        -2      830
## 6  2013     8    21      625            600        25      903
## # … with 100 more rows, and 12 more variables: sched_arr_time <int>,
## #   arr_delay <dbl>, carrier <chr>, flight <int>, tailnum <chr>,
## #   origin <chr>, dest <chr>, air_time <dbl>, distance <dbl>,
## #   hour <dbl>, minute <dbl>, time_hour <dttm>
```
…
```r
flights_dest <- select(flights, dest, everything()) 
arrange(flights_dest, dest, month, day)
```

```
## # A tibble: 336,776 x 19
##   dest   year month   day dep_time sched_dep_time dep_delay arr_time
##   <chr> <int> <int> <int>    <int>          <int>     <dbl>    <int>
## 1 ABQ    2013     4    22     1712           1630        42     1946
## 2 ABQ    2013     4    23     2022           2025        -3     2319
## 3 ABQ    2013     4    24     2037           2025        12       14
## 4 ABQ    2013     4    25     2023           2025        -2     2339
## 5 ABQ    2013     4    26     2020           2025        -5     2318
## 6 ABQ    2013     4    27     2020           2025        -5     2245
## # … with 336,770 more rows, and 11 more variables:
## #   sched_arr_time <int>, arr_delay <dbl>, carrier <chr>,
## #   flight <int>, tailnum <chr>, origin <chr>, air_time <dbl>,
## #   distance <dbl>, hour <dbl>, minute <dbl>, time_hour <dttm>
```
---
class: clear
We can use **desc** to order a column in descending order, e.g.,

```r
arrange(flights_dest, desc(dest), month, day)
```

```
## # A tibble: 336,776 x 19
##   dest   year month   day dep_time sched_dep_time dep_delay arr_time
##   <chr> <int> <int> <int>    <int>          <int>     <dbl>    <int>
## 1 XNA    2013     1     1      656            705        -9     1007
## 2 XNA    2013     1     1     1525           1530        -5     1934
## 3 XNA    2013     1     1     1740           1745        -5     2158
## 4 XNA    2013     1     2      656            705        -9     1014
## 5 XNA    2013     1     2      905            822        43     1313
## 6 XNA    2013     1     2     1531           1530         1     1846
## # … with 336,770 more rows, and 11 more variables:
## #   sched_arr_time <int>, arr_delay <dbl>, carrier <chr>,
## #   flight <int>, tailnum <chr>, origin <chr>, air_time <dbl>,
## #   distance <dbl>, hour <dbl>, minute <dbl>, time_hour <dttm>
```
---
class: header_background
#select()
This verb is used to select a subset of columns (of variables). As an example, let us keep only the departure and arrival time of the flights.

```r
flights_sml <- select(flights, year, month, day, 
                      dep_time, sched_dep_time, 
                      arr_time, sched_arr_time)
flights_sml
```

```
## # A tibble: 336,776 x 7
##    year month   day dep_time sched_dep_time arr_time sched_arr_time
##   <int> <int> <int>    <int>          <int>    <int>          <int>
## 1  2013     1     1      517            515      830            819
## 2  2013     1     1      533            529      850            830
## 3  2013     1     1      542            540      923            850
## 4  2013     1     1      544            545     1004           1022
## 5  2013     1     1      554            600      812            837
## 6  2013     1     1      554            558      740            728
## # … with 336,770 more rows
```
…
```r
rename(flights_sml,
       departure_time = dep_time, arrival_time = arr_time)
```

```
## # A tibble: 336,776 x 7
##    year month   day departure_time sched_dep_time arrival_time
##   <int> <int> <int>          <int>          <int>        <int>
## 1  2013     1     1            517            515          830
## 2  2013     1     1            533            529          850
## 3  2013     1     1            542            540          923
## 4  2013     1     1            544            545         1004
## 5  2013     1     1            554            600          812
## 6  2013     1     1            554            558          740
## # … with 336,770 more rows, and 1 more variable: sched_arr_time <int>
```
---
class: clear
A useful helper function for use with select is the **everything()** function, which matches all variables. For example, to move a specific variable to the first column of data frame, we can do

```r
select(flights_sml, dep_time, everything())
```

```
## # A tibble: 336,776 x 7
##   dep_time  year month   day sched_dep_time arr_time sched_arr_time
##      <int> <int> <int> <int>          <int>    <int>          <int>
## 1      517  2013     1     1            515      830            819
## 2      533  2013     1     1            529      850            830
## 3      542  2013     1     1            540      923            850
## 4      544  2013     1     1            545     1004           1022
## 5      554  2013     1     1            600      812            837
## 6      554  2013     1     1            558      740            728
## # … with 336,770 more rows
```
…
```r
flights_sml <- select(flights, year:day,ends_with("delay"),
                      distance, air_time)
mutate(flights_sml, gain = arr_delay - dep_delay,
                    hours = air_time/60,
                    speed = distance/hours,
                    gain_per_hour = gain/hours) %>% select(-hours)
```

```
## # A tibble: 336,776 x 10
##    year month   day dep_delay arr_delay distance air_time  gain speed
##   <int> <int> <int>     <dbl>     <dbl>    <dbl>    <dbl> <dbl> <dbl>
## 1  2013     1     1         2        11     1400      227     9  370.
## 2  2013     1     1         4        20     1416      227    16  374.
## 3  2013     1     1         2        33     1089      160    31  408.
## 4  2013     1     1        -1       -18     1576      183   -17  517.
## 5  2013     1     1        -6       -25      762      116   -19  394.
## 6  2013     1     1        -4        12      719      150    16  288.
## # … with 336,770 more rows, and 1 more variable: gain_per_hour <dbl>
```
---
class: clear
A variant of *mutate* is *transmute*, which drops all variables except the newly created variables, e.g.,

```r
transmute(flights, gain = arr_delay - dep_delay, 
                   hours = air_time/60, 
                   gain_per_hour = gain/hours)
```

```
## # A tibble: 336,776 x 3
##    gain hours gain_per_hour
##   <dbl> <dbl>         <dbl>
## 1     9  3.78          2.38
## 2    16  3.78          4.23
## 3    31  2.67         11.6 
## 4   -17  3.05         -5.57
## 5   -19  1.93         -9.83
## 6    16  2.5           6.4 
## # … with 336,770 more rows
```
…
```r
flights %>% group_by(year, month, day)
```

```
## # A tibble: 336,776 x 19
## # Groups:   year, month, day [365]
##    year month   day dep_time sched_dep_time dep_delay arr_time
##   <int> <int> <int>    <int>          <int>     <dbl>    <int>
## 1  2013     1     1      517            515         2      830
## 2  2013     1     1      533            529         4      850
## 3  2013     1     1      542            540         2      923
## 4  2013     1     1      544            545        -1     1004
## 5  2013     1     1      554            600        -6      812
## 6  2013     1     1      554            558        -4      740
## # … with 336,770 more rows, and 12 more variables:
## #   sched_arr_time <int>, arr_delay <dbl>, carrier <chr>,
## #   flight <int>, tailnum <chr>, origin <chr>, dest <chr>,
## #   air_time <dbl>, distance <dbl>, hour <dbl>, minute <dbl>,
## #   time_hour <dttm>
```
---
class: clear

```r
flights %>% group_by(year, month, day) %>%
summarize(delay = mean(dep_delay, na.rm = TRUE))
```

```
## # A tibble: 365 x 4
## # Groups:   year, month [12]
##    year month   day delay
##   <int> <int> <int> <dbl>
## 1  2013     1     1 11.5 
## 2  2013     1     2 13.9 
## 3  2013     1     3 11.0 
## 4  2013     1     4  8.95
## 5  2013     1     5  5.73
## 6  2013     1     6  7.15
## # … with 359 more rows
```
…
```r
delays <- flights %>% group_by(dest) %>% 
  summarize(count = n(), 
            dist = mean(distance,na.rm = TRUE),
            avg_delay = mean(arr_delay + dep_delay,na.rm = TRUE)
            ) %>%
  filter(count > 20, dest != "HNL")
delays
```

```
## # A tibble: 96 x 4
##   dest  count  dist avg_delay
##   <chr> <int> <dbl>     <dbl>
## 1 ABQ     254 1826       18.1
## 2 ACK     265  199       11.3
## 3 ALB     439  143       37.8
## 4 ATL   17215  757.      23.7
## 5 AUS    2439 1514.      19.0
## 6 AVL     275  584.      16.2
## # … with 90 more rows
```
…
<img src="02_wrangling_files/figure-html/unnamed-chunk-21-1.png" width="80%" style="display: block; margin: auto;" />
---
class: clear
There are a large number of useful summary functions. See Section 5.6.4 of [R4DS](https://r4ds.had.co.nz/transform.html#summarise-funs). We provide a few more examples.

```r
## average arrival delay
not_canceled <- filter(flights, !is.na(dep_delay) & !is.na(arr_delay))
not_canceled %>% group_by(year, month, day) %>% 
  summarize(avg_delay = mean(arr_delay), 
            avg_positive_delay = mean(arr_delay[arr_delay > 0]))
```

```
## # A tibble: 365 x 5
## # Groups:   year, month [12]
##    year month   day avg_delay avg_positive_delay
##   <int> <int> <int>     <dbl>              <dbl>
## 1  2013     1     1     12.7                32.5
## 2  2013     1     2     12.7                32.0
## 3  2013     1     3      5.73               27.7
## 4  2013     1     4     -1.93               28.3
## 5  2013     1     5     -1.53               22.6
## 6  2013     1     6      4.24               24.4
## # … with 359 more rows
```
---
class: clear

```r
not_canceled %>% group_by(dest) %>% 
  summarize(dist_sd = sd(distance)) %>% arrange(desc(dist_sd))
```

```
## # A tibble: 104 x 2
##   dest  dist_sd
##   <chr>   <dbl>
## 1 EGE     10.5 
## 2 SAN     10.4 
## 3 SFO     10.2 
## 4 HNL     10.0 
## 5 SEA      9.98
## 6 LAS      9.91
## # … with 98 more rows
```
---
class: clear
We note that *summarize* drops all variables except possibly those used to group the data and those variables introduced by the summary statistics. Contrasts the following two approaches

```r
not_canceled %>% group_by(year,month,day) %>%
  summarize(first_dep = first(dep_time), last_dep = last(dep_time))
```

```
## # A tibble: 365 x 5
## # Groups:   year, month [12]
##    year month   day first_dep last_dep
##   <int> <int> <int>     <int>    <int>
## 1  2013     1     1       517     2356
## 2  2013     1     2        42     2354
## 3  2013     1     3        32     2349
## 4  2013     1     4        25     2358
## 5  2013     1     5        14     2357
## 6  2013     1     6        16     2355
## # … with 359 more rows
```
---
class: clear

```r
not_canceled %>% group_by(year, month, day) %>%
  mutate(r = min_rank(desc(dep_time))) %>% filter(r %in% range(r))
```

```
## # A tibble: 770 x 20
## # Groups:   year, month, day [365]
##    year month   day dep_time sched_dep_time dep_delay arr_time
##   <int> <int> <int>    <int>          <int>     <dbl>    <int>
## 1  2013     1     1      517            515         2      830
## 2  2013     1     1     2356           2359        -3      425
## 3  2013     1     2       42           2359        43      518
## 4  2013     1     2     2354           2359        -5      413
## 5  2013     1     3       32           2359        33      504
## 6  2013     1     3     2349           2359       -10      434
## # … with 764 more rows, and 13 more variables: sched_arr_time <int>,
## #   arr_delay <dbl>, carrier <chr>, flight <int>, tailnum <chr>,
## #   origin <chr>, dest <chr>, air_time <dbl>, distance <dbl>,
## #   hour <dbl>, minute <dbl>, time_hour <dttm>, r <int>
```
---
class: header_background
# More examples

```r
not_canceled %>% group_by(year, month, day) %>%
  summarize(n_early = sum(dep_time < 500))
```

```
## # A tibble: 365 x 4
## # Groups:   year, month [12]
##    year month   day n_early
##   <int> <int> <int>   <int>
## 1  2013     1     1       0
## 2  2013     1     2       3
## 3  2013     1     3       4
## 4  2013     1     4       3
## 5  2013     1     5       3
## 6  2013     1     6       2
## # … with 359 more rows
```
---
class: clear

```r
not_canceled %>% group_by(dest) %>%
  summarize(long_delay_pct = mean(arr_delay > 60)) %>%
  arrange(desc(long_delay_pct))
```

```
## # A tibble: 104 x 2
##   dest  long_delay_pct
##   <chr>          <dbl>
## 1 CAE            0.255
## 2 TUL            0.245
## 3 OKC            0.216
## 4 TYS            0.206
## 5 BHM            0.171
## 6 DSM            0.170
## # … with 98 more rows
```
---
class: clear
Finally, when you group by multiple variables, each call to `\(\mathrm{summary}\)` peels off one level of the grouping, e.g.,

```r
daily <- group_by(flights, dest, month, day)
daily
```

```
## # A tibble: 336,776 x 19
## # Groups:   dest, month, day [31,229]
##    year month   day dep_time sched_dep_time dep_delay arr_time
##   <int> <int> <int>    <int>          <int>     <dbl>    <int>
## 1  2013     1     1      517            515         2      830
## 2  2013     1     1      533            529         4      850
## 3  2013     1     1      542            540         2      923
## 4  2013     1     1      544            545        -1     1004
## 5  2013     1     1      554            600        -6      812
## 6  2013     1     1      554            558        -4      740
## # … with 336,770 more rows, and 12 more variables:
## #   sched_arr_time <int>, arr_delay <dbl>, carrier <chr>,
## #   flight <int>, tailnum <chr>, origin <chr>, dest <chr>,
## #   air_time <dbl>, distance <dbl>, hour <dbl>, minute <dbl>,
## #   time_hour <dttm>
```
---
class:clear

```r
daily %>% summarize(flights = n()) %>% 
          summarize(flights = sum(flights)) %>%
          summarize(flights = sum(flights)) 
```

```
## # A tibble: 105 x 2
##   dest  flights
##   <chr>   <int>
## 1 ABQ       254
## 2 ACK       265
## 3 ALB       439
## 4 ANC         8
## 5 ATL     17215
## 6 AUS      2439
## # … with 99 more rows
```
---
class: clear
Be careful when peeling off nested groupings using a sequence of `\(\mathrm{summarize}\)`. 

Consider the following examples.

```r
group_by(not_canceled, dest, month) %>% 
  summarize(air_time = mean(air_time)) %>% 
  summarize(air_time = mean(air_time))
```

```
## # A tibble: 104 x 2
##   dest  air_time
##   <chr>    <dbl>
## 1 ABQ      250. 
## 2 ACK       41.9
## 3 ALB       31.8
## 4 ANC      413. 
## 5 ATL      113. 
## 6 AUS      214. 
## # … with 98 more rows
```
…
