Introduction to Data Science
…
---
class: middle

Let us now **tidy** up this data by first unnesting the list column.

```r
library(tidyr)
macbeth_chars <- macbeth_chars %>% unnest(speaks)
macbeth_chars
```

```
## # A tibble: 12,776 × 3
##   name    regexp         speaks
##   <chr>   <chr>          <lgl> 
## 1 MACBETH "^\\s+MACBETH" FALSE 
## 2 MACBETH "^\\s+MACBETH" FALSE 
## 3 MACBETH "^\\s+MACBETH" FALSE 
## 4 MACBETH "^\\s+MACBETH" FALSE 
## 5 MACBETH "^\\s+MACBETH" FALSE 
## 6 MACBETH "^\\s+MACBETH" FALSE 
## # … with 12,770 more rows
```
…
