K-means and hierarchical clustering
…
+ The `\(K\)`-means algorithm in general will only find a local minimum (which depends on the initial random cluster centroids). There are several heuristics, such as random restarts, to remove this limitation

+ Given two values of `\(K\)`, say `\(K_1\)` and `\(K_2\)`, we can compute a similarity index such as the [adjusted Rand Index](https://en.wikipedia.org/wiki/Rand_index) (from the **clues** or **mclust** package) between the two clusterings.

---
# K-means example 

```r
data(USArrests)
USArrests
```

```
## # A tibble: 50 x 4
##   Murder Assault UrbanPop  Rape
##    <dbl>   <int>    <int> <dbl>
## 1   13.2     236       58  21.2
## 2   10       263       48  44.5
## 3    8.1     294       80  31  
## 4    8.8     190       50  19.5
## 5    9       276       91  40.6
## 6    7.9     204       78  38.7
## # … with 44 more rows
```
…
<img src="clustering_files/figure-html/unnamed-chunk-10-1.png" width="70%" style="display: block; margin: auto;" />

---
class: clear
Suppose we want to cluster the members of the Scottish parliement based on their voting records. Our approach is to first converting the data to a wide format, then do PCA, and then clustering the data via e.g., `\(K\)`-means.

```r
Votes_wide <- Votes %>%
  tidyr::spread(key = bill, value = vote)
Votes_wide
```

```
## # A tibble: 134 x 774
##   name  `S1M-1` `S1M-1007.1` `S1M-1007.2` `S1M-1008` `S1M-1008.1`
##   <chr>   <int>        <int>        <int>      <int>        <int>
## 1 Adam…       1            1           -1          0            0
## 2 Aitk…       1            1            1         -1           -1
## 3 Alex…       1           -1           -1          1            1
## 4 Bail…       1           -1           -1          1            1
## 5 Barr…      -1           -1           -1          1            1
## 6 Boya…       0           -1           -1          1            1
## # … with 128 more rows, and 768 more variables: `S1M-1026` <int>,
## #   `S1M-1026.2` <int>, `S1M-1027` <int>, `S1M-1027.1` <int>,
## #   `S1M-1036` <int>, `S1M-105.1` <int>, `S1M-1051.1` <int>,
## #   `S1M-1051.2` <int>, `S1M-1065` <int>, `S1M-1072` <int>,
## #   `S1M-1077` <int>, `S1M-1091` <int>, `S1M-1091.1` <int>,
## #   `S1M-1091.2` <int>, `S1M-1092` <int>, `S1M-1147` <int>,
## #   `S1M-1147.1` <int>, `S1M-1147.2` <int>, `S1M-1185` <int>,
## #   `S1M-1196.1` <int>, `S1M-1213` <int>, `S1M-1213.2` <int>,
## #   `S1M-1215` <int>, `S1M-1215.1` <int>, `S1M-1216` <int>,
…
```r
data(Parties)
Parties
```

```
## # A tibble: 134 x 2
##   party                                    name                        
##   <chr>                                    <chr>                       
## 1 Member for Falkirk West                  Canavan, Dennis             
## 2 Scottish Conservative and Unionist Party Aitken, Bill                
## 3 Scottish Conservative and Unionist Party Davidson, Mr David          
## 4 Scottish Conservative and Unionist Party Douglas Hamilton, Lord James
## 5 Scottish Conservative and Unionist Party Fergusson, Alex             
## 6 Scottish Conservative and Unionist Party Fraser, Murdo               
## # … with 128 more rows
```

```r
voters <- voters %>% mutate(cluster = as.factor(clusters$cluster)) %>%
  mutate(name = Votes_wide$name) %>%
  left_join(Parties, by = c("name" = "name"))
```
---
class: clear

```r
voters
```

```
## # A tibble: 134 x 8
##       V1     V2     V3     V4     V5 cluster name        party             
##    <dbl>  <dbl>  <dbl>  <dbl>  <dbl> <fct>   <chr>       <chr>             
## 1 -11.7   16.2   -7.81  0.835 -1.12  6       Adam, Brian Scottish National…
## 2  -7.22 -14.8  -18.2  -0.134  0.193 2       Aitken, Bi… Scottish Conserva…
## 3  21.2    2.29  -1.35  2.70  -1.20  1       Alexander,… Scottish Labour   
## 4  25.0    2.92  -3.35  1.46   0.750 1       Baillie, J… Scottish Labour   
## 5  26.5    2.87  -3.17  1.54   0.773 1       Barrie, Sc… Scottish Labour   
## 6  25.1    2.38  -3.14  0.893  0.434 1       Boyack, Sa… Scottish Labour   
## # … with 128 more rows
```
…
