Clustering examples
…
## List of 3
##  $ vector : num [1:22470] 1.65e-05 1.65e-05 1.65e-05 1.65e-05 1.65e-05 ...
##  $ value  : num 1
##  $ options: NULL

summary(pg$vector)

##      Min.   1st Qu.    Median      Mean   3rd Qu.      Max. 
## 1.653e-05 1.761e-05 2.297e-05 4.450e-05 3.919e-05 5.294e-03

nodes_info <- readr::read_csv("~/Downloads/facebook_large/musae_facebook_target.csv")
nodes_info

## # A tibble: 22,470 x 4
##       id facebook_id page_name                                    page_type
##    <dbl>       <dbl> <chr>                                        <chr>    
##  1     0     1.46e14 The Voice of China                 tvshow   
##  2     1     1.91e11 U.S. Consulate General Mumbai                governme
##  3     2     1.45e14 ESET                                         company  
##  4     3     5.69e14 Consulate General of Switzerland in Montreal governme
##  5     4     1.41e15 Mark Bailey MP - Labor for Miller            politici
##  6     5     1.34e14 Victor Dominello MP                          politici
##  7     6     2.83e14 Jean-Claude Poissant                         politici
##  8     7     2.39e14 Deputado Ademir Camilo                       politici
##  9     8     5.45e14 T.C. Mezar- erif Bakonsolosluu           governme
## 10     9     2.85e11 Army ROTC Fighting Saints Battalion          governme
## #  with 22,460 more rows
…
