Visualizing Data
…
<img src="intro_map_files/figure-html/unnamed-chunk-16-1.png" width="120%" style="display: block; margin: auto;" />
]
---
# More on groupings: interactions

```r
mpg
```

```
## # A tibble: 234 x 11
##   manufacturer model displ  year   cyl trans  drv     cty   hwy fl    class
##   <chr>        <chr> <dbl> <int> <int> <chr>  <chr> <int> <int> <chr> <chr>
## 1 audi         a4      1.8  1999     4 auto(… f        18    29 p     comp…
## 2 audi         a4      1.8  1999     4 manua… f        21    29 p     comp…
## 3 audi         a4      2    2008     4 manua… f        20    31 p     comp…
## 4 audi         a4      2    2008     4 auto(… f        21    30 p     comp…
## 5 audi         a4      2.8  1999     6 auto(… f        16    26 p     comp…
## 6 audi         a4      2.8  1999     6 manua… f        18    26 p     comp…
## # … with 228 more rows
```
…
