Visualizing Data
…
<img src="intro_visualization_files/figure-html/unnamed-chunk-3-1.png" width="120%" style="display: block; margin: auto;" />

Close, but no cigar ? In any case, the above plot is nice in that a total of six variables are mapped to six *aesthetics*; `\(x\)` and `\(y\)` axis mapped to the location of the army, the size of the army is mapped to the size of the line, the direction of movement is mapped to color, date of points along retreat path is mapped to the text below plot, and the temperature during the retreat is mapped to the line below the plot.
---
#ggplot2 basic
We start with a very simple plot. Consider the following dataset about fuel efficieny for cars.

```r
library(ggplot2)
data(mpg)
select(mpg, -fl, -class)
```

```
## # A tibble: 234 x 9
##   manufacturer model displ  year   cyl trans      drv     cty   hwy
##   <chr>        <chr> <dbl> <int> <int> <chr>      <chr> <int> <int>
## 1 audi         a4      1.8  1999     4 auto(l5)   f        18    29
## 2 audi         a4      1.8  1999     4 manual(m5) f        21    29
## 3 audi         a4      2    2008     4 manual(m6) f        20    31
## 4 audi         a4      2    2008     4 auto(av)   f        21    30
## 5 audi         a4      2.8  1999     6 auto(l5)   f        16    26
## 6 audi         a4      2.8  1999     6 manual(m5) f        18    26
## # … with 228 more rows
```
…
