Singular Value Decomposition and Principal Component Analysis
…
```r
## Construct kernel matrix
gamma <- 0.0106
K <- exp(-gamma*as.matrix(dist(train[,-1])^2)) ## The Gaussian kernel matrix
library(irlba)
## Construct a representation of the data in 20 dimensions
K_irlba <- irlba(K, nu = 20, nv = 20)
X_lift <- K_irlba$u %*% diag(sqrt(K_irlba$d)) 
tibble::as_tibble(X_lift)
```

```
## # A tibble: 5,000 x 20
##      V1      V2       V3      V4       V5      V6       V7       V8      V9
##   <dbl>   <dbl>    <dbl>   <dbl>    <dbl>   <dbl>    <dbl>    <dbl>   <dbl>
## 1 0.664  0.0400  0.162    0.112  -0.204   -0.0148 -0.121   -0.157   -0.0503
## 2 0.619  0.125  -0.114   -0.0469  0.0926   0.143   0.0468  -0.249   -0.0627
## 3 0.547  0.0265 -0.0947   0.221  -0.00357 -0.206   0.00813  0.0329  -0.153 
## 4 0.620 -0.0306  0.00850 -0.189  -0.0676  -0.159  -0.0425   0.00354  0.0839
## 5 0.617  0.129  -0.0326  -0.116  -0.309    0.179  -0.174    0.0935  -0.120 
## 6 0.714 -0.344   0.0104   0.0629 -0.0995   0.267   0.133    0.0728  -0.125 
## # … with 4,994 more rows, and 11 more variables: V10 <dbl>, V11 <dbl>,
## #   V12 <dbl>, V13 <dbl>, V14 <dbl>, V15 <dbl>, V16 <dbl>, V17 <dbl>,
## #   V18 <dbl>, V19 <dbl>, V20 <dbl>
```
…
