Data Wrangling
…
```r
filter(flights, month == 8, day == 21)
```

```
## # A tibble: 990 x 19
##    year month   day dep_time sched_dep_time dep_delay arr_time
##   <int> <int> <int>    <int>          <int>     <dbl>    <int>
## 1  2013     8    21       10           2359        11      350
## 2  2013     8    21       36           2359        37      413
## 3  2013     8    21       48           1620       508      251
## 4  2013     8    21      453            500        -7      634
## 5  2013     8    21      528            530        -2      757
## 6  2013     8    21      536            545        -9      808
## # … with 984 more rows, and 12 more variables: sched_arr_time <int>,
## #   arr_delay <dbl>, carrier <chr>, flight <int>, tailnum <chr>,
## #   origin <chr>, dest <chr>, air_time <dbl>, distance <dbl>, hour <dbl>,
## #   minute <dbl>, time_hour <dttm>
```

```r
## Equivalently: filter(flights, month == 8 & day == 21)
```
---
class: clear
Next, let us try to filter flights from August 21, 2013 that departs from either JFK or LGA.

```r
august21 <- filter(flights, month == 8 & day == 21)
filter(august21, origin == 'JFK' | origin == 'LGA') 
```

```
## # A tibble: 637 x 19
##    year month   day dep_time sched_dep_time dep_delay arr_time
##   <int> <int> <int>    <int>          <int>     <dbl>    <int>
## 1  2013     8    21       10           2359        11      350
## 2  2013     8    21       36           2359        37      413
## 3  2013     8    21       48           1620       508      251
## 4  2013     8    21      536            545        -9      808
## 5  2013     8    21      540            540         0      837
## 6  2013     8    21      544            545        -1      911
## # … with 631 more rows, and 12 more variables: sched_arr_time <int>,
## #   arr_delay <dbl>, carrier <chr>, flight <int>, tailnum <chr>,
## #   origin <chr>, dest <chr>, air_time <dbl>, distance <dbl>, hour <dbl>,
## #   minute <dbl>, time_hour <dttm>
```

```r
## Equivalently: filter(august21, origin %in% c("JFK","LGA"))
```
---
class: clear
Let us now check, among all the flights on August 21 from either JFK or LGA, which of them has a departure or arrival delay of 10 minutes or more.

```r
august21_jfk_lga <- filter(august21, origin %in% c("JFK","LGA"))
filter(august21_jfk_lga, arr_delay > 10 | dep_delay > 10)
```

```
## # A tibble: 106 x 19
##    year month   day dep_time sched_dep_time dep_delay arr_time
##   <int> <int> <int>    <int>          <int>     <dbl>    <int>
## 1  2013     8    21       10           2359        11      350
## 2  2013     8    21       36           2359        37      413
## 3  2013     8    21       48           1620       508      251
## 4  2013     8    21      555            600        -5      839
## 5  2013     8    21      558            600        -2      830
## 6  2013     8    21      625            600        25      903
## # … with 100 more rows, and 12 more variables: sched_arr_time <int>,
## #   arr_delay <dbl>, carrier <chr>, flight <int>, tailnum <chr>,
## #   origin <chr>, dest <chr>, air_time <dbl>, distance <dbl>, hour <dbl>,
## #   minute <dbl>, time_hour <dttm>
```
---
class: clear
We can do all of the above filtering using a single chain sequence as follows

```r
flights %>% filter(month == 8 & day == 21) %>% 
            filter(origin %in% c("JFK","LGA")) %>%
            filter(arr_delay > 10 | dep_delay > 10)
```

```
## # A tibble: 106 x 19
##    year month   day dep_time sched_dep_time dep_delay arr_time
##   <int> <int> <int>    <int>          <int>     <dbl>    <int>
## 1  2013     8    21       10           2359        11      350
## 2  2013     8    21       36           2359        37      413
## 3  2013     8    21       48           1620       508      251
## 4  2013     8    21      555            600        -5      839
## 5  2013     8    21      558            600        -2      830
## 6  2013     8    21      625            600        25      903
## # … with 100 more rows, and 12 more variables: sched_arr_time <int>,
## #   arr_delay <dbl>, carrier <chr>, flight <int>, tailnum <chr>,
## #   origin <chr>, dest <chr>, air_time <dbl>, distance <dbl>, hour <dbl>,
## #   minute <dbl>, time_hour <dttm>
```
…
```r
flights %>% group_by(year, month, day) %>%
summarize(delay = mean(dep_delay, na.rm = TRUE))
```

```
## # A tibble: 365 x 4
## # Groups:   year, month [12]
##    year month   day delay
##   <int> <int> <int> <dbl>
## 1  2013     1     1 11.5 
## 2  2013     1     2 13.9 
## 3  2013     1     3 11.0 
## 4  2013     1     4  8.95
## 5  2013     1     5  5.73
## 6  2013     1     6  7.15
## # … with 359 more rows
```
…
```r
delays <- flights %>% group_by(dest) %>% 
  summarize(count = n(), 
            dist = mean(distance,na.rm = TRUE),
            avg_delay = mean(arr_delay + dep_delay,na.rm = TRUE)
            ) %>%
  filter(count > 20, dest != "HNL")
delays
```

```
## # A tibble: 96 x 4
##   dest  count  dist avg_delay
##   <chr> <int> <dbl>     <dbl>
## 1 ABQ     254 1826       18.1
## 2 ACK     265  199       11.3
## 3 ALB     439  143       37.8
## 4 ATL   17215  757.      23.7
## 5 AUS    2439 1514.      19.0
## 6 AVL     275  584.      16.2
## # … with 90 more rows
```
…
<img src="intro_wrangling_files/figure-html/unnamed-chunk-21-1.png" width="80%" style="display: block; margin: auto;" />
---
class: clear
There are a large number of useful summary functions. See Section 5.6.4 of [R4DS](https://r4ds.had.co.nz/transform.html#summarise-funs). We provide a few more examples.

```r
## average arrival delay
not_canceled <- filter(flights, !is.na(dep_delay) & !is.na(arr_delay))
not_canceled %>% group_by(year, month, day) %>% 
  summarize(avg_delay = mean(arr_delay), 
            avg_positive_delay = mean(arr_delay[arr_delay > 0]))
```

```
## # A tibble: 365 x 5
## # Groups:   year, month [12]
##    year month   day avg_delay avg_positive_delay
##   <int> <int> <int>     <dbl>              <dbl>
## 1  2013     1     1     12.7                32.5
## 2  2013     1     2     12.7                32.0
## 3  2013     1     3      5.73               27.7
## 4  2013     1     4     -1.93               28.3
## 5  2013     1     5     -1.53               22.6
## 6  2013     1     6      4.24               24.4
## # … with 359 more rows
```
---
class: clear

```r
not_canceled %>% group_by(dest) %>% 
  summarize(dist_sd = sd(distance)) %>% arrange(desc(dist_sd))
```

```
## # A tibble: 104 x 2
##   dest  dist_sd
##   <chr>   <dbl>
## 1 EGE     10.5 
## 2 SAN     10.4 
## 3 SFO     10.2 
## 4 HNL     10.0 
## 5 SEA      9.98
## 6 LAS      9.91
## # … with 98 more rows
```
---
class: clear
We note that *summarize* drops all variables except possibly those used to group the data and those variables introduced by the summary statistics. Contrasts the following two approaches

```r
not_canceled %>% group_by(year,month,day) %>%
  summarize(first_dep = first(dep_time), last_dep = last(dep_time))
```

```
## # A tibble: 365 x 5
## # Groups:   year, month [12]
##    year month   day first_dep last_dep
##   <int> <int> <int>     <int>    <int>
## 1  2013     1     1       517     2356
## 2  2013     1     2        42     2354
## 3  2013     1     3        32     2349
## 4  2013     1     4        25     2358
## 5  2013     1     5        14     2357
## 6  2013     1     6        16     2355
## # … with 359 more rows
```
---
class: clear

```r
not_canceled %>% group_by(year, month, day) %>%
  mutate(r = min_rank(desc(dep_time))) %>% filter(r %in% range(r))
```

```
## # A tibble: 770 x 20
## # Groups:   year, month, day [365]
##    year month   day dep_time sched_dep_time dep_delay arr_time
##   <int> <int> <int>    <int>          <int>     <dbl>    <int>
## 1  2013     1     1      517            515         2      830
## 2  2013     1     1     2356           2359        -3      425
## 3  2013     1     2       42           2359        43      518
## 4  2013     1     2     2354           2359        -5      413
## 5  2013     1     3       32           2359        33      504
## 6  2013     1     3     2349           2359       -10      434
## # … with 764 more rows, and 13 more variables: sched_arr_time <int>,
## #   arr_delay <dbl>, carrier <chr>, flight <int>, tailnum <chr>,
## #   origin <chr>, dest <chr>, air_time <dbl>, distance <dbl>, hour <dbl>,
## #   minute <dbl>, time_hour <dttm>, r <int>
```
---
# More examples

```r
not_canceled %>% group_by(year, month, day) %>%
  summarize(n_early = sum(dep_time < 500))
```

```
## # A tibble: 365 x 4
## # Groups:   year, month [12]
##    year month   day n_early
##   <int> <int> <int>   <int>
## 1  2013     1     1       0
## 2  2013     1     2       3
## 3  2013     1     3       4
## 4  2013     1     4       3
## 5  2013     1     5       3
## 6  2013     1     6       2
## # … with 359 more rows
```
---
class: clear

```r
not_canceled %>% group_by(dest) %>%
  summarize(long_delay_pct = mean(arr_delay > 60)) %>%
  arrange(desc(long_delay_pct))
```

```
## # A tibble: 104 x 2
##   dest  long_delay_pct
##   <chr>          <dbl>
## 1 CAE            0.255
## 2 TUL            0.245
## 3 OKC            0.216
## 4 TYS            0.206
## 5 BHM            0.171
## 6 DSM            0.170
## # … with 98 more rows
```
…
```r
daily %>% summarize(flights = n()) %>% 
          summarize(flights = sum(flights)) %>%
          summarize(flights = sum(flights)) 
```

```
## # A tibble: 105 x 2
##   dest  flights
##   <chr>   <int>
## 1 ABQ       254
## 2 ACK       265
## 3 ALB       439
## 4 ANC         8
## 5 ATL     17215
## 6 AUS      2439
## # … with 99 more rows
```
---
class: clear
Be careful when peeling off nested groupings using a sequence of `\(\mathrm{summarize}\)`; e.g.,

```r
group_by(not_canceled, dest, month) %>% 
  summarize(air_time = mean(air_time)) %>% 
  summarize(air_time = mean(air_time))
```

```
## # A tibble: 104 x 2
##   dest  air_time
##   <chr>    <dbl>
## 1 ABQ      250. 
## 2 ACK       41.9
## 3 ALB       31.8
## 4 ANC      413. 
## # … with 100 more rows
```

```r
group_by(not_canceled, dest) %>% 
  summarize(air_time = mean(air_time))
```

```
## # A tibble: 104 x 2
##   dest  air_time
##   <chr>    <dbl>
## 1 ABQ      249. 
## 2 ACK       42.1
## 3 ALB       31.8
## 4 ANC      413. 
## # … with 100 more rows
```
---
class: clear

```r
group_by(not_canceled, dest, month) %>% 
  summarize(air_time = median(air_time)) %>% 
  summarize(air_time = median(air_time))
```

```
## # A tibble: 104 x 2
##   dest  air_time
##   <chr>    <dbl>
## 1 ABQ      244  
## 2 ACK       40.5
## 3 ALB       31  
## 4 ANC      415. 
## # … with 100 more rows
```

```r
group_by(not_canceled, dest) %>% 
  summarize(air_time = median(air_time))
```

```
## # A tibble: 104 x 2
##   dest  air_time
##   <chr>    <dbl>
## 1 ABQ       246 
## 2 ACK        41 
## 3 ALB        31 
## 4 ANC       414.
## # … with 100 more rows
```
---
#ungroup()
To remove grouping structure on grouped data, use `\(\mathrm{ungroup()}\)`, e.g.,

```r
daily <- group_by(flights, year, month, day)
summarize(daily, flights = n())
```

```
## # A tibble: 365 x 4
## # Groups:   year, month [12]
##    year month   day flights
##   <int> <int> <int>   <int>
## 1  2013     1     1     842
## 2  2013     1     2     943
## 3  2013     1     3     914
## 4  2013     1     4     915
## # … with 361 more rows
```
…
```r
## Find the worst flights with longest delay each day
flights_sml <- select(flights, year:day, ends_with("delay"),
                      distance, air_time)
flights_sml %>% group_by(year, month, day) %>%
  filter(rank(desc(arr_delay)) <= 10)
```

```
## # A tibble: 3,609 x 7
## # Groups:   year, month, day [365]
##    year month   day dep_delay arr_delay distance air_time
##   <int> <int> <int>     <dbl>     <dbl>    <dbl>    <dbl>
## 1  2013     1     1       853       851      184       41
## 2  2013     1     1       290       338     1134      213
## 3  2013     1     1       260       263      266       46
## 4  2013     1     1       155       166      277       68
## # … with 3,605 more rows
```
…
```r
players <- batting %>% group_by(playerID)
```
---
class: clear
Using this dataset, let us try a few `\(\mathrm{group\_mutate}\)` and `\(\mathrm{group\_filter}\)` operations. 

```r
## For each player, find the two years with most hits
filter(players, min_rank(desc(H)) <= 2 & H > 0)
```

```
## # A tibble: 2,777 x 7
## # Groups:   playerID [1,315]
##   playerID  yearID teamID     G    AB     R     H
##   <chr>      <int> <fct>  <int> <int> <int> <int>
## 1 aaronha01   1959 ML1      154   629   116   223
## 2 aaronha01   1963 ML1      161   631   121   201
## 3 abbotji01   1999 MIL       20    21     0     2
## 4 abernte02   1955 WS1       40    26     1     4
## # … with 2,773 more rows
```
…
```r
## For each player, find every year that was 
## better than the previous year
filter(players, AB > 0, lag(AB) > 0, H/AB > lag(H)/lag(AB))
```

```
## # A tibble: 7,877 x 7
## # Groups:   playerID [1,289]
##   playerID  yearID teamID     G    AB     R     H
##   <chr>      <int> <fct>  <int> <int> <int> <int>
## 1 aaronha01   1955 ML1      153   602   105   189
## 2 aaronha01   1956 ML1      153   609   106   200
## 3 aaronha01   1958 ML1      153   601   109   196
## 4 aaronha01   1959 ML1      154   629   116   223
## # … with 7,873 more rows
```
…
```r
batting %>% group_by(teamID,playerID) %>%
  summarise(total_hits = sum(H), total_ab = sum(AB), 
            batting_avg = total_hits/total_ab) %>%
  filter(!is.na(batting_avg)) %>%
  mutate(quartile = ntile(batting_avg,4)) %>%
  group_by(teamID,quartile) %>% 
  summarise(batting_avg = sum(total_hits)/sum(total_ab))
```

```
## # A tibble: 235 x 3
## # Groups:   teamID [79]
##   teamID quartile batting_avg
##   <fct>     <int>       <dbl>
## 1 ANA           1       0.184
## 2 ANA           2       0.258
## 3 ANA           3       0.281
## 4 ANA           4       0.301
## # … with 231 more rows
```
…
These variants are best illustrated using examples. For more details see the [cheat sheet](https://github.com/dcl-docs/cheat-sheets/blob/master/scoped_verbs.md).
.pull-left[

```r
df <- tibble(
  x = runif(100), 
  y = runif(100), z = runif(100))
df
```

```
## # A tibble: 100 x 3
##       x      y     z
##   <dbl>  <dbl> <dbl>
## 1 0.488 0.0331 0.428
## 2 0.987 0.896  0.269
## 3 0.528 0.944  0.319
## 4 0.379 0.157  0.719
## # … with 96 more rows
```
…
The previous examples uses the `\(.\)` operator, which serves as a placeholder for the variable/data of interest. See also the documentation for the [magrittr library](https://github.com/tidyverse/magrittr).

---
class: clear
Examples of `\(\mathrm{summarize\_at}\)`; `\(\mathrm{summarize\_at}\)` can use the helper functions of `\(\mathrm{select}\)`. 
.pull-left[

```r
df
```

```
## # A tibble: 100 x 3
##       x      y     z
##   <dbl>  <dbl> <dbl>
## 1 0.488 0.0331 0.428
## 2 0.987 0.896  0.269
## 3 0.528 0.944  0.319
## 4 0.379 0.157  0.719
## # … with 96 more rows
```
…
```r
starwars
```

```
## # A tibble: 87 x 13
##   name  height  mass hair_color skin_color eye_color birth_year gender
##   <chr>  <int> <dbl> <chr>      <chr>      <chr>          <dbl> <chr> 
## 1 Luke…    172    77 blond      fair       blue            19   male  
## 2 C-3PO    167    75 <NA>       gold       yellow         112   <NA>  
## 3 R2-D2     96    32 <NA>       white, bl… red             33   <NA>  
## 4 Dart…    202   136 none       white      yellow          41.9 male  
## # … with 83 more rows, and 5 more variables: homeworld <chr>,
## #   species <chr>, films <list>, vehicles <list>, starships <list>
```
…
```r
## Find all observations with at least one missing value.
flights %>% filter_all(any_vars(is.na(.))) 
```

```
## # A tibble: 9,430 x 19
##    year month   day dep_time sched_dep_time dep_delay arr_time
##   <int> <int> <int>    <int>          <int>     <dbl>    <int>
## 1  2013     1     1     1525           1530        -5     1934
## 2  2013     1     1     1528           1459        29     2002
## 3  2013     1     1     1740           1745        -5     2158
## 4  2013     1     1     1807           1738        29     2251
## # … with 9,426 more rows, and 12 more variables: sched_arr_time <int>,
## #   arr_delay <dbl>, carrier <chr>, flight <int>, tailnum <chr>,
## #   origin <chr>, dest <chr>, air_time <dbl>, distance <dbl>, hour <dbl>,
## #   minute <dbl>, time_hour <dttm>
```
…
