The hitchhiker’s guide to Linear Models
…
+ If `\(\mathbf{X}\)` is not of full-column rank, then there are an **infinite** number of possible solutions `\(\hat{\boldsymbol{\beta}}\)`; however, the **fitted** values `\(\hat{\boldsymbol{y}} = \mathbf{X} \hat{\boldsymbol{\beta}}\)` will still be **unique**.

+ We will now assume, unless specified otherwise, that `\(\mathbf{X}\)` is of full column rank.

---
#An example: SAT score and spending

```r
library(faraway)
data(sat)
sat
```

```
## # A tibble: 50 x 8
##   state      expend ratio salary takers verbal  math total
##   <chr>       <dbl> <dbl>  <dbl>  <int>  <int> <int> <int>
## 1 Alabama      4.40  17.2   31.1      8    491   538  1029
## 2 Alaska       8.96  17.6   48.0     47    445   489   934
## 3 Arizona      4.78  19.3   32.2     27    448   496   944
## 4 Arkansas     4.46  17.1   28.9      6    482   523  1005
## 5 California   4.99  24     41.1     45    417   485   902
## 6 Colorado     5.44  18.4   34.6     29    462   518   980
## # … with 44 more rows
```
…
```
##      (Intercept) expend ratio salary
## [1,]         549   9.63  3.83  -4.64
```
---
# How to interpret a coefficent ?

```r
  library("SenSrivastava")
  data(E2.2)
  E2.2
```

```
## # A tibble: 26 x 14
##   Price   BDR   FLR    FP   RMS    ST   LOT   TAX   BTH   CON   GAR   CDN
##   <dbl> <dbl> <dbl> <dbl> <dbl> <dbl> <dbl> <dbl> <dbl> <dbl> <dbl> <dbl>
## 1    53     2   967     0     5     0    39   652   1.5     1   0       0
## 2    55     2   815     1     5     0    33  1000   1       1   2       1
## 3    56     3   900     0     5     1    35   897   1.5     1   1       0
## 4    58     3  1007     0     6     1    24   964   1.5     0   2       0
## 5    64     3  1100     1     7     0    50  1099   1.5     1   1.5     0
## 6    44     4   897     0     7     0    25   960   2       0   1       0
## # … with 20 more rows, and 2 more variables: L1 <dbl>, L2 <dbl>
```
…
```r
library(dplyr)
tetrahymena <- read.csv2("https://bit.ly/2ngMtJE", 
                         sep = ";", dec = ".", header=TRUE, 
                         colClasses = c("numeric","numeric","numeric"), 
                         na.strings=".")
tetrahymena <- tetrahymena %>% filter(glucose == 0) %>% select(-glucose)
rownames(tetrahymena) <- NULL
tetrahymena
```

```
## # A tibble: 19 x 2
##   concentration diameter
##           <dbl>    <dbl>
## 1        630000     19.2
## 2        501000     19.5
## 3        332000     19.8
## 4        285000     21  
## 5        201000     21  
## 6        175000     21  
## # … with 13 more rows
```
…
