Introduction to Data Science
…
For this example we use the following dataset from the `\(2014\)` World Health Organization (WHO) Global Tubercolosis Report. This dataset records the number of cases of tubercolosis in countries around the world during the period of `\(1980\)` through `\(2013\)`. 

```r
who
```

```
## # A tibble: 7,240 × 60
##   country     iso2  iso3   year new_sp_m014 new_sp_m1524 new_sp_m2534
##   <chr>       <chr> <chr> <dbl>       <dbl>        <dbl>        <dbl>
## 1 Afghanistan AF    AFG    1980          NA           NA           NA
## 2 Afghanistan AF    AFG    1981          NA           NA           NA
## 3 Afghanistan AF    AFG    1982          NA           NA           NA
## 4 Afghanistan AF    AFG    1983          NA           NA           NA
## 5 Afghanistan AF    AFG    1984          NA           NA           NA
## 6 Afghanistan AF    AFG    1985          NA           NA           NA
## # ℹ 7,234 more rows
## # ℹ 53 more variables: new_sp_m3544 <dbl>, new_sp_m4554 <dbl>,
## #   new_sp_m5564 <dbl>, new_sp_m65 <dbl>, new_sp_f014 <dbl>,
## #   new_sp_f1524 <dbl>, new_sp_f2534 <dbl>, new_sp_f3544 <dbl>,
## #   new_sp_f4554 <dbl>, new_sp_f5564 <dbl>, new_sp_f65 <dbl>,
## #   new_sn_m014 <dbl>, new_sn_m1524 <dbl>, new_sn_m2534 <dbl>,
## #   new_sn_m3544 <dbl>, new_sn_m4554 <dbl>, new_sn_m5564 <dbl>, …
```
…
Also, the numerous columns whose names start with `new` indicate that these columns' names should be recorded as values as opposed to being variables names.

We thus start by pivoting the data to a longer format.

```r
who1 <- who %>% 
  select(-iso2,-iso3) %>%
  pivot_longer(col = -c("country","year"), names_to = "code", 
               values_to = "cases", values_drop_na = TRUE)
who1
```

```
## # A tibble: 76,046 × 4
##   country      year code         cases
##   <chr>       <dbl> <chr>        <dbl>
## 1 Afghanistan  1997 new_sp_m014      0
## 2 Afghanistan  1997 new_sp_m1524    10
## 3 Afghanistan  1997 new_sp_m2534     6
## 4 Afghanistan  1997 new_sp_m3544     3
## 5 Afghanistan  1997 new_sp_m4554     5
## 6 Afghanistan  1997 new_sp_m5564     2
## # ℹ 76,040 more rows
```
…
```r
who2
```

```
## # A tibble: 76,046 × 7
##   country      year type  sex   age   cases key         
##   <chr>       <dbl> <chr> <chr> <chr> <dbl> <chr>       
## 1 Afghanistan  1997 sp    m     014       0 new_sp_m014 
## 2 Afghanistan  1997 sp    m     1524     10 new_sp_m1524
## 3 Afghanistan  1997 sp    m     2534      6 new_sp_m2534
## 4 Afghanistan  1997 sp    m     3544      3 new_sp_m3544
## 5 Afghanistan  1997 sp    m     4554      5 new_sp_m4554
## 6 Afghanistan  1997 sp    m     5564      2 new_sp_m5564
## # ℹ 76,040 more rows
```
…
```r
library(babynames)
babynames
```

```
## # A tibble: 1,924,665 × 5
##    year sex   name          n   prop
##   <dbl> <chr> <chr>     <int>  <dbl>
## 1  1880 F     Mary       7065 0.0724
## 2  1880 F     Anna       2604 0.0267
## 3  1880 F     Emma       2003 0.0205
## 4  1880 F     Elizabeth  1939 0.0199
## 5  1880 F     Minnie     1746 0.0179
## 6  1880 F     Margaret   1578 0.0162
## # ℹ 1,924,659 more rows
```
…
+ **flights**: contains information about flights departing NYC airports during `\(2013\)`.
+ **airlines**: maps abbreviated code to full carrier name.
+ **airports**: gives information about each airport as identified by its FAA code.
+ **planes**: gives information about each plane as identified by its *tailnum*
+ **weather**: provides weather information at each NYC airport for each hour.

```r
flights
```

```
## # A tibble: 336,776 × 19
##    year month   day dep_time sched_dep_time dep_delay arr_time
##   <int> <int> <int>    <int>          <int>     <dbl>    <int>
## 1  2013     1     1      517            515         2      830
## 2  2013     1     1      533            529         4      850
## 3  2013     1     1      542            540         2      923
## # ℹ 336,773 more rows
## # ℹ 12 more variables: sched_arr_time <int>, arr_delay <dbl>,
## #   carrier <chr>, flight <int>, tailnum <chr>, origin <chr>,
## #   dest <chr>, air_time <dbl>, distance <dbl>, hour <dbl>,
## #   minute <dbl>, time_hour <dttm>
```
---
class: clear

```r
airlines
```

```
## # A tibble: 16 × 2
##   carrier name                  
##   <chr>   <chr>                 
## 1 9E      Endeavor Air Inc.     
## 2 AA      American Airlines Inc.
## 3 AS      Alaska Airlines Inc.  
## # ℹ 13 more rows
```

```r
airports
```

```
## # A tibble: 1,458 × 8
##   faa   name                         lat   lon   alt    tz dst   tzone
##   <chr> <chr>                      <dbl> <dbl> <dbl> <dbl> <chr> <chr>
## 1 04G   Lansdowne Airport           41.1 -80.6  1044    -5 A     Amer…
## 2 06A   Moton Field Municipal Air…  32.5 -85.7   264    -6 A     Amer…
## 3 06C   Schaumburg Regional         42.0 -88.1   801    -6 A     Amer…
## # ℹ 1,455 more rows
```
---
class: clear

```r
planes
```

```
## # A tibble: 3,322 × 9
##   tailnum  year type     manufacturer model engines seats speed engine
##   <chr>   <int> <chr>    <chr>        <chr>   <int> <int> <int> <chr> 
## 1 N10156   2004 Fixed w… EMBRAER      EMB-…       2    55    NA Turbo…
## 2 N102UW   1998 Fixed w… AIRBUS INDU… A320…       2   182    NA Turbo…
## 3 N103US   1999 Fixed w… AIRBUS INDU… A320…       2   182    NA Turbo…
## # ℹ 3,319 more rows
```

```r
weather
```

```
## # A tibble: 26,115 × 15
##   origin  year month   day  hour  temp  dewp humid wind_dir wind_speed
##   <chr>  <int> <int> <int> <int> <dbl> <dbl> <dbl>    <dbl>      <dbl>
## 1 EWR     2013     1     1     1  39.0  26.1  59.4      270      10.4 
## 2 EWR     2013     1     1     2  39.0  27.0  61.6      250       8.06
## 3 EWR     2013     1     1     3  39.0  28.0  64.4      240      11.5 
## # ℹ 26,112 more rows
## # ℹ 5 more variables: wind_gust <dbl>, precip <dbl>, pressure <dbl>,
## #   visib <dbl>, time_hour <dttm>
```
---
class: clear
Suppose we now want to get the full airlines name for each flights (as opposed to the carrier code). For ease of presentation, we will only include a subset of the original columns for the **flights** data frame.

```r
flights.sml <- select(flights, year:day, dep_time, tailnum, carrier, dest)
flights.sml
```

```
## # A tibble: 336,776 × 7
##    year month   day dep_time tailnum carrier dest 
##   <int> <int> <int>    <int> <chr>   <chr>   <chr>
## 1  2013     1     1      517 N14228  UA      IAH  
## 2  2013     1     1      533 N24211  UA      IAH  
## 3  2013     1     1      542 N619AA  AA      MIA  
## # ℹ 336,773 more rows
```

```r
flights.sml %>% inner_join(airlines)
```

```
## Joining with `by = join_by(carrier)`
```

```
## # A tibble: 336,776 × 8
##    year month   day dep_time tailnum carrier dest  name               
##   <int> <int> <int>    <int> <chr>   <chr>   <chr> <chr>              
## 1  2013     1     1      517 N14228  UA      IAH   United Air Lines I…
## 2  2013     1     1      533 N24211  UA      IAH   United Air Lines I…
## 3  2013     1     1      542 N619AA  AA      MIA   American Airlines …
## # ℹ 336,773 more rows
```
---
class: clear
Suppose that we want to get detailed information about the airplanes used in the flights.
In this case, we want to match the observations in both table using the *tailnum* column.

```r
flights.sml %>% inner_join(planes)
```

```
## Joining with `by = join_by(year, tailnum)`
```

```
## # A tibble: 4,630 × 14
##    year month   day dep_time tailnum carrier dest  type   manufacturer
##   <int> <int> <int>    <int> <chr>   <chr>   <chr> <chr>  <chr>       
## 1  2013     1    18     1846 N37465  UA      FLL   Fixed… BOEING      
## 2  2013    10     1      647 N355JB  B6      BOS   Fixed… EMBRAER     
## 3  2013    10     1      652 N37471  UA      LAX   Fixed… BOEING      
## # ℹ 4,627 more rows
## # ℹ 5 more variables: model <chr>, engines <int>, seats <int>,
## #   speed <int>, engine <chr>
```

```r
flights.sml %>% inner_join(planes, by = "tailnum")
```

```
## # A tibble: 284,170 × 15
##   year.x month   day dep_time tailnum carrier dest  year.y type       
##    <int> <int> <int>    <int> <chr>   <chr>   <chr>  <int> <chr>      
## 1   2013     1     1      517 N14228  UA      IAH     1999 Fixed wing…
## 2   2013     1     1      533 N24211  UA      IAH     1998 Fixed wing…
## 3   2013     1     1      542 N619AA  AA      MIA     1990 Fixed wing…
## # ℹ 284,167 more rows
## # ℹ 6 more variables: manufacturer <chr>, model <chr>, engines <int>,
## #   seats <int>, speed <int>, engine <chr>
```
---
class: clear
Comparing the following two variants of **join()**, we see that there are values in the *tailnum* column of the **flights** table
that do not appear in the **planes** table. 

We thus need to be careful when using **inner_join()** as it can silently remove observations.

```r
flights.sml %>% left_join(planes, by = "tailnum")
```

```
## # A tibble: 336,776 × 15
##   year.x month   day dep_time tailnum carrier dest  year.y type       
##    <int> <int> <int>    <int> <chr>   <chr>   <chr>  <int> <chr>      
## 1   2013     1     1      517 N14228  UA      IAH     1999 Fixed wing…
## 2   2013     1     1      533 N24211  UA      IAH     1998 Fixed wing…
## 3   2013     1     1      542 N619AA  AA      MIA     1990 Fixed wing…
## # ℹ 336,773 more rows
## # ℹ 6 more variables: manufacturer <chr>, model <chr>, engines <int>,
## #   seats <int>, speed <int>, engine <chr>
```

```r
flights.sml %>% inner_join(planes, by = "tailnum")
```

```
## # A tibble: 284,170 × 15
##   year.x month   day dep_time tailnum carrier dest  year.y type       
##    <int> <int> <int>    <int> <chr>   <chr>   <chr>  <int> <chr>      
## 1   2013     1     1      517 N14228  UA      IAH     1999 Fixed wing…
## 2   2013     1     1      533 N24211  UA      IAH     1998 Fixed wing…
## 3   2013     1     1      542 N619AA  AA      MIA     1990 Fixed wing…
## # ℹ 284,167 more rows
## # ℹ 6 more variables: manufacturer <chr>, model <chr>, engines <int>,
## #   seats <int>, speed <int>, engine <chr>
```
---
class: clear
When the identifying key of one table is different from the other table, we use `by = c("a" = "b")`, e.g.,

```r
airports
```

```
## # A tibble: 1,458 × 8
##   faa   name                         lat   lon   alt    tz dst   tzone
##   <chr> <chr>                      <dbl> <dbl> <dbl> <dbl> <chr> <chr>
## 1 04G   Lansdowne Airport           41.1 -80.6  1044    -5 A     Amer…
## 2 06A   Moton Field Municipal Air…  32.5 -85.7   264    -6 A     Amer…
## 3 06C   Schaumburg Regional         42.0 -88.1   801    -6 A     Amer…
## # ℹ 1,455 more rows
```

```r
flights.sml %>% left_join(airports, by = c("dest" = "faa"))
```

```
## # A tibble: 336,776 × 14
##    year month   day dep_time tailnum carrier dest  name      lat   lon
##   <int> <int> <int>    <int> <chr>   <chr>   <chr> <chr>   <dbl> <dbl>
## 1  2013     1     1      517 N14228  UA      IAH   George…  30.0 -95.3
## 2  2013     1     1      533 N24211  UA      IAH   George…  30.0 -95.3
## 3  2013     1     1      542 N619AA  AA      MIA   Miami …  25.8 -80.3
## # ℹ 336,773 more rows
## # ℹ 4 more variables: alt <dbl>, tz <dbl>, dst <chr>, tzone <chr>
```
…
```r
flights %>% 
  filter(dest %in% top_dest$dest) %>%
  select(year:day, dest)
```

```
## # A tibble: 141,145 × 4
##    year month   day dest 
##   <int> <int> <int> <chr>
## 1  2013     1     1 MIA  
## 2  2013     1     1 ATL  
## 3  2013     1     1 ORD  
## # ℹ 141,142 more rows
```
]
.pull-right[

```r
flights %>% semi_join(top_dest) %>%
  select(year:day, dest)
```

```
## # A tibble: 141,145 × 4
##    year month   day dest 
##   <int> <int> <int> <chr>
## 1  2013     1     1 MIA  
## 2  2013     1     1 ATL  
## 3  2013     1     1 ORD  
## # ℹ 141,142 more rows
```
]
---
class: clear
As another example of filtering joins, we noted that not all the tailnum associated with planes used in the **flights** table appeared in the **planes** table. 

We might want to count how many flights are associated with each of these tailnum.

```r
flights %>% anti_join(planes, by = "tailnum") %>%
  group_by(tailnum) %>% summarise(n = n()) %>% arrange(desc(n))
```

```
## # A tibble: 722 × 2
##   tailnum     n
##   <chr>   <int>
## 1 <NA>     2512
## 2 N725MQ    575
## 3 N722MQ    513
## # ℹ 719 more rows
```
…
```
## Warning: One or more parsing issues, call `problems()` on your data frame for details,
## e.g.:
##   dat <- vroom(...)
##   problems(dat)
```

```r
coverage[53:nrow(coverage),]
```

```
## # A tibble: 26 × 29
##   Location         `2013__Employer` `2013__Non-Group` `2013__Medicaid`
##   <chr>                       <dbl>             <dbl>            <dbl>
## 1 Notes                          NA                NA               NA
## 2 The majority of…               NA                NA               NA
## 3 <NA>                           NA                NA               NA
## # ℹ 23 more rows
## # ℹ 25 more variables: `2013__Medicare` <dbl>,
## #   `2013__Other Public` <chr>, `2013__Uninsured` <dbl>,
## #   `2013__Total` <dbl>, `2014__Employer` <dbl>,
## #   `2014__Non-Group` <dbl>, `2014__Medicaid` <dbl>,
## #   `2014__Medicare` <dbl>, `2014__Other Public` <chr>,
## #   `2014__Uninsured` <dbl>, `2014__Total` <dbl>, …
```
…
---
class: clear

```r
coverage_long <- coverage %>%  
  pivot_longer(cols = -c("Location"), 
               names_to  = "year_type", values_to = "tot_coverage")
coverage_long
```

```
## # A tibble: 1,456 × 3
##   Location      year_type       tot_coverage
##   <chr>         <chr>                  <dbl>
## 1 United States 2013__Employer     155696900
## 2 United States 2013__Non-Group     13816000
## 3 United States 2013__Medicaid      54919100
## # ℹ 1,453 more rows
```

The spending data is also untidy. More pivoting

```r
spending_long <- spending %>% 
  pivot_longer(cols = -c("Location"), 
               names_to = "year", values_to = "tot_spending")
spending_long
```

```
## # A tibble: 1,248 × 3
##   Location      year                        tot_spending
##   <chr>         <chr>                              <dbl>
## 1 United States 1991__Total Health Spending       675896
## 2 United States 1992__Total Health Spending       731455
## 3 United States 1993__Total Health Spending       778684
## # ℹ 1,245 more rows
```
---
class: clear
We now separate the `year` column for the **spending** data and the `year_type` column for the **coverage** data

```r
spending_long <- spending_long %>% 
  separate(year, sep = "__", into = c("year", "name"), convert = TRUE) %>%
  select(-name)
spending_long
```

```
## # A tibble: 1,248 × 3
##   Location       year tot_spending
##   <chr>         <int>        <dbl>
## 1 United States  1991       675896
## 2 United States  1992       731455
## 3 United States  1993       778684
## # ℹ 1,245 more rows
```

```r
coverage_long <- coverage_long %>%
  separate(year_type, sep = "__", into = c("year", "type"), convert = TRUE)
coverage_long
```

```
## # A tibble: 1,456 × 4
##   Location       year type      tot_coverage
##   <chr>         <int> <chr>            <dbl>
## 1 United States  2013 Employer     155696900
## 2 United States  2013 Non-Group     13816000
## 3 United States  2013 Medicaid      54919100
## # ℹ 1,453 more rows
```
…
```r
library(datasets)
data(state)
states.df <- tibble(
  state.name = c(state.name, "District of Columbia"),
  state.abb =  c(state.abb, "DC"),
  state.region = as.factor(c(as.character(state.region), "South")))
coverage_long <- coverage_long %>% 
  left_join(states.df, by = c("Location" = "state.name"))
coverage_long
```

```
## # A tibble: 1,456 × 6
##   Location       year type      tot_coverage state.abb state.region
##   <chr>         <int> <chr>            <dbl> <chr>     <fct>       
## 1 United States  2013 Employer     155696900 <NA>      <NA>        
## 2 United States  2013 Non-Group     13816000 <NA>      <NA>        
## 3 United States  2013 Medicaid      54919100 <NA>      <NA>        
## # ℹ 1,453 more rows
```
…
```
## Joining with `by = join_by(Location, year)`
## Joining with `by = join_by(Location)`
```

```r
hc
```

```
## # A tibble: 728 × 8
##   Location       year type      tot_coverage state.abb state.region
##   <chr>         <int> <chr>            <dbl> <chr>     <fct>       
## 1 United States  2013 Employer     155696900 <NA>      <NA>        
## 2 United States  2013 Non-Group     13816000 <NA>      <NA>        
## 3 United States  2013 Medicaid      54919100 <NA>      <NA>        
## # ℹ 725 more rows
## # ℹ 2 more variables: tot_spending <dbl>, life_exp_years <dbl>
```
…
```r
pop <- hc %>% 
  filter(type == "Total") %>%
  select(Location, year, tot_coverage) %>%
  rename(tot_population = tot_coverage)
hc <- hc %>%
  filter(Location != "United States", type != "Total") %>%
  left_join(pop) %>% select(Location, year, type, tot_population, everything())
hc
```

```
## # A tibble: 612 × 9
##   Location  year type      tot_population tot_coverage state.abb
##   <chr>    <int> <chr>              <dbl>        <dbl> <chr>    
## 1 Alabama   2013 Employer         4763900      2126500 AL       
## 2 Alabama   2013 Non-Group        4763900       174200 AL       
## 3 Alabama   2013 Medicaid         4763900       869700 AL       
## # ℹ 609 more rows
## # ℹ 3 more variables: state.region <fct>, tot_spending <dbl>,
## #   life_exp_years <dbl>
```
…
```r
exp_wpct <- function(x, k = 2) { 
  return(1/(1 + (1/x)^k))
}
library(Lahman)
TeamRuns <- Teams %>% 
  rename(RS = R) %>% 
  mutate(wpct = W / (W + L), run_ratio = RS/RA, 
         hat.wpct = exp_wpct(run_ratio)) %>%
  select(yearID, teamID, lgID, wpct, hat.wpct, run_ratio) 
TeamRuns
```

```
## # A tibble: 3,015 × 6
##   yearID teamID lgID   wpct hat.wpct run_ratio
##    <int> <fct>  <fct> <dbl>    <dbl>     <dbl>
## 1   1871 BS1    NA    0.667    0.637     1.32 
## 2   1871 CH1    NA    0.679    0.611     1.25 
## 3   1871 CL1    NA    0.345    0.348     0.730
## # ℹ 3,012 more rows
```
…
```
## # A tibble: 16 × 1
##       k
##   <dbl>
## 1  1.95
## 2  1.82
## 3  2.02
## # ℹ 13 more rows
```
…
```r
hr_leader <- function(x){
  x %>% select(yearID, lgID, teamID, HR) %>%
    arrange(desc(HR)) %>% head(n = 1)
}
library(Lahman)
hr_leaders <- Teams %>% group_split(yearID, lgID) %>%
  map_df(hr_leader)
hr_leaders
```

```
## # A tibble: 288 × 4
##   yearID lgID  teamID    HR
##    <int> <fct> <fct>  <int>
## 1   1871 NA    CH1       10
## 2   1872 NA    BL1       14
## 3   1873 NA    BS1       13
## # ℹ 285 more rows
```
…
