Medium scale data
…
```r
flights_db <- db %>% tbl("flights")
tailnum_delay_db <- flights_db %>% 
  group_by(tailnum) %>%
  summarise(
    delay = mean(arr_delay),
    n = n()
  ) %>% 
  arrange(desc(delay)) %>%
  filter(n > 100)
tailnum_delay_db
```

```
## # A tibble: 6,945 x 3
##   tailnum delay     n
##   <chr>   <dbl> <dbl>
## 1 N2331U   36.9   136
## 2 N7LDAA   36.2   103
## 3 N2332U   32.6   118
## 4 N8AJAA   31.5   135
## 5 N835MH   27.8   140
## 6 N26967   26.9   122
## # … with 6,939 more rows
```
…
