Nathan Hotdogs
…
## Parsed with column specification:
## cols(
##   Year = col_double(),
##   Winner = col_character(),
##   `Dogs eaten` = col_double(),
##   Country = col_character(),
##   `New record` = col_double()
## )

names(hd) <- gsub(" ", "_", names(hd)) %>% ## Replace " " by "_" in column names
  tolower() ## Convert column names to lower case
hd

## # A tibble: 31 x 5
##    year winner                       dogs_eaten country       new_record
##   <dbl> <chr>                             <dbl> <chr>              <dbl>
## 1  1980 Paul Siederman & Joe Baldini        9.1 United States          0
## 2  1981 Thomas DeBerry                     11   United States          0
## 3  1982 Steven Abrams                      11   United States          0
## 4  1983 Luis Llamas                        19.5 Mexico                 0
## 5  1984 Birgit Felden                       9.5 Germany                0
## 6  1985 Oscar Rodriguez                    11.8 United States          0
## #  with 25 more rows
…
