Regression Examples
…
Regression Examples

Example 1: SAT and spending

library(faraway)
library(dplyr)
data(sat)
sat$state <- rownames(sat)
sat <- sat %>% select(state, everything())
sat

## # A tibble: 50 x 8
##    state       expend ratio salary takers verbal  math total
##    <chr>        <dbl> <dbl>  <dbl>  <int>  <int> <int> <int>
##  1 Alabama       4.40  17.2   31.1      8    491   538  1029
##  2 Alaska        8.96  17.6   48.0     47    445   489   934
##  3 Arizona       4.78  19.3   32.2     27    448   496   944
##  4 Arkansas      4.46  17.1   28.9      6    482   523  1005
##  5 California    4.99  24     41.1     45    417   485   902
##  6 Colorado      5.44  18.4   34.6     29    462   518   980
##  7 Connecticut   8.82  14.4   50.0     81    431   477   908
##  8 Delaware      7.03  16.6   39.1     68    429   468   897
##  9 Florida       5.72  19.1   32.6     48    420   469   889
## 10 Georgia       5.19  16.3   32.3     65    406   448   854
## #  with 40 more rows
…
If we now remove the eye-balled outliers and recompute the least square regression, we get the above plot. It is not always easy to automatically detect outliers when they occur in clusters such as in this example. What happens if the data include \(3\) or more predictor variables ?

Example 3: Life Expectancy in Gapminder

library(gapminder)
gapminder

## # A tibble: 1,704 x 6
##    country     continent  year lifeExp      pop gdpPercap
##    <fct>       <fct>     <int>   <dbl>    <int>     <dbl>
##  1 Afghanistan Asia       1952    28.8  8425333      779.
##  2 Afghanistan Asia       1957    30.3  9240934      821.
##  3 Afghanistan Asia       1962    32.0 10267083      853.
##  4 Afghanistan Asia       1967    34.0 11537966      836.
##  5 Afghanistan Asia       1972    36.1 13079460      740.
##  6 Afghanistan Asia       1977    38.4 14880372      786.
##  7 Afghanistan Asia       1982    39.9 12881816      978.
##  8 Afghanistan Asia       1987    40.8 13867957      852.
##  9 Afghanistan Asia       1992    41.7 16317921      649.
## 10 Afghanistan Asia       1997    41.8 22227415      635.
## #  with 1,694 more rows
…
