Sample questions
…
Sample questions

Part 1 (Wrangling data with dplyr)

For the next several questions, use the following dataset.

library(gapminder)
gapminder

## # A tibble: 1,704 x 6
##    country     continent  year lifeExp      pop gdpPercap
##    <fct>       <fct>     <int>   <dbl>    <int>     <dbl>
##  1 Afghanistan Asia       1952    28.8  8425333      779.
##  2 Afghanistan Asia       1957    30.3  9240934      821.
##  3 Afghanistan Asia       1962    32.0 10267083      853.
##  4 Afghanistan Asia       1967    34.0 11537966      836.
##  5 Afghanistan Asia       1972    36.1 13079460      740.
##  6 Afghanistan Asia       1977    38.4 14880372      786.
##  7 Afghanistan Asia       1982    39.9 12881816      978.
##  8 Afghanistan Asia       1987    40.8 13867957      852.
##  9 Afghanistan Asia       1992    41.7 16317921      649.
## 10 Afghanistan Asia       1997    41.8 22227415      635.
## #  with 1,694 more rows
…
## (d)
table_q4 <- table1 %>% group_by(country) %>% nest() %>% 
  mutate(means = map(data, colmeans))

Answer (d) run the code

Part 4 (Basic statistics and linear models)

For this part, read the following description. DrinkDrankDrunkis a beverage company. The company is interested in finding the effect of choice of beverages on employees productivity. The company performs a study in which the predictor variable \(X\) is the amount of coffee (in pint) consumed by an employee per day for a duration of one month, \(Z\) is the amount of soda (in pint) consumed by an employee per day for a duration of one month, and \(W\) is the amount of energy drink (in pint) consumed by an employee per day for a duration of one month. The response variable \(Y\) is a measure of productivity of the employee for the month. The number of data points is \(n = 40\). The values of the predictor variable \(X\) ranges from \(1\) to \(5\), the values of the predictor variable \(Z\) ranges from \(1\) to \(4\) and the values of the predictor variables \(W\) ranges from \(0\) to \(3\). A snippet of the data is as follows

## # A tibble: 40 x 4
##        Y     W     X     Z
##    <dbl> <dbl> <dbl> <dbl>
##  1  14.3  2.44     1     5
##  2  14.4  2.48     1     5
##  3  14.4  2.66     1     5
##  4  14.9  2.51     1     5
##  5  14.8  2.51     1     5
##  6  14.5  2.67     1     5
##  7  14.5  2.55     1     5
##  8  14.3  2.37     1     5
##  9  14.6  2.43     1     5
## 10  14.4  2.46     1     5
## #  with 30 more rows
…
Q3. What is a reasonable prediction interval for \(Y_*\) when \(\boldsymbol{x}_* = (W_*, X_*, Z_*) = (2,3,4)\) ? (This is a fill-in a blank question. You dont have to provide the exact numbers but you need to demonstrate that you know how to obtain the answer from the output given above).

Answer The prediction interval is simply \[\hat{\beta}_0 + 2 \hat{\beta}_W + 3 \hat{\beta}_X + 4 \hat{\beta}_Z \pm 2 \times \sqrt{\mathrm{MSE}} \times \sqrt{1 + \boldsymbol{x}_*^{\top} (\mathbf{X}^{\top} \mathbf{X})^{-1} \boldsymbol{x}_*}\] where \(\boldsymbol{x}_* = (1, X_*, Z_*, W_*) = (1,3,2,4)\).

Q4. Can you conclude, from the above output, that (assuming the model is true), there is scant evidence supporting the hypothesis that \(\beta_X = 0.65\) and \(\beta_Z = 1\) simultaneously (with \(\beta_0\) and \(\beta_W\) arbitrary) ? Why or why not ?

Answer The marginal confidence intervals suggests that \(\beta_X\) is unlikely to be \(0.65\) and \(\beta_Z\) is unlikely to be \(1\). However, \((0.65,1)\) could potentially lie in the joint confidence region for \(\beta_X\) and \(\beta_Z\), but it is hard, without a computer, to see how the joint confidence region for \(\beta_X\) and \(\beta_Z\) looks like using only the above output.

Part 5 (Visualizing data)

For this part, use the following dataset on highway efficiency of cars.

mpg

## # A tibble: 234 x 11
##    manufacturer model displ  year   cyl trans drv     cty   hwy fl    class
##    <chr>        <chr> <dbl> <int> <int> <chr> <chr> <int> <int> <chr> <chr>
##  1 audi         a4      1.8  1999     4 auto f        18    29 p     comp
##  2 audi         a4      1.8  1999     4 manu f        21    29 p     comp
##  3 audi         a4      2    2008     4 manu f        20    31 p     comp
##  4 audi         a4      2    2008     4 auto f        21    30 p     comp
##  5 audi         a4      2.8  1999     6 auto f        16    26 p     comp
##  6 audi         a4      2.8  1999     6 manu f        18    26 p     comp
##  7 audi         a4      3.1  2008     6 auto f        18    27 p     comp
##  8 audi         a4 q   1.8  1999     4 manu 4        18    26 p     comp
##  9 audi         a4 q   1.8  1999     4 auto 4        16    25 p     comp
## 10 audi         a4 q   2    2008     4 manu 4        20    28 p     comp
## #  with 224 more rows
…
