Spam detection with CART
…
Spam detection with CART

library(rpart) #To construct CART models
library(rpart.plot) 
library(rattle) #For visualization
library(dplyr)

spam <- readr::read_delim("https://web.stanford.edu/~hastie/ElemStatLearn/datasets/spam.data", 
                          delim = " ", col_names = FALSE)
spam

## # A tibble: 4,601 x 58
##       X1    X2    X3    X4    X5    X6    X7    X8    X9   X10   X11   X12
##    <dbl> <dbl> <dbl> <dbl> <dbl> <dbl> <dbl> <dbl> <dbl> <dbl> <dbl> <dbl>
##  1  0     0.64  0.64     0  0.32  0     0     0     0     0     0     0.64
##  2  0.21  0.28  0.5      0  0.14  0.28  0.21  0.07  0     0.94  0.21  0.79
##  3  0.06  0     0.71     0  1.23  0.19  0.19  0.12  0.64  0.25  0.38  0.45
##  4  0     0     0        0  0.63  0     0.31  0.63  0.31  0.63  0.31  0.31
##  5  0     0     0        0  0.63  0     0.31  0.63  0.31  0.63  0.31  0.31
##  6  0     0     0        0  1.85  0     0     1.85  0     0     0     0   
##  7  0     0     0        0  1.92  0     0     0     0     0.64  0.96  1.28
##  8  0     0     0        0  1.88  0     0     1.88  0     0     0     0   
##  9  0.15  0     0.46     0  0.61  0     0.3   0     0.92  0.76  0.76  0.92
## 10  0.06  0.12  0.77     0  0.19  0.32  0.38  0     0.06  0     0     0.64
## #  with 4,591 more rows, and 46 more variables: X13 <dbl>, X14 <dbl>,
## #   X15 <dbl>, X16 <dbl>, X17 <dbl>, X18 <dbl>, X19 <dbl>, X20 <dbl>,
## #   X21 <dbl>, X22 <dbl>, X23 <dbl>, X24 <dbl>, X25 <dbl>, X26 <dbl>,
## #   X27 <dbl>, X28 <dbl>, X29 <dbl>, X30 <dbl>, X31 <dbl>, X32 <dbl>,
## #   X33 <dbl>, X34 <dbl>, X35 <dbl>, X36 <dbl>, X37 <dbl>, X38 <dbl>,
## #   X39 <dbl>, X40 <dbl>, X41 <dbl>, X42 <dbl>, X43 <dbl>, X44 <dbl>,
## #   X45 <dbl>, X46 <dbl>, X47 <dbl>, X48 <dbl>, X49 <dbl>, X50 <dbl>,
## #   X51 <dbl>, X52 <dbl>, X53 <dbl>, X54 <dbl>, X55 <dbl>, X56 <dbl>,
## #   X57 <dbl>, X58 <dbl>

## Now we need to assign names to these columns.
spam_names <- readr::read_delim("ftp://ftp.ics.uci.edu/pub/machine-learning-databases/spambase/spambase.names", 
                                delim = ":", col_names = FALSE, skip = 33)
spam_names

## # A tibble: 57 x 2
##    X1                 X2                      
##    <chr>              <chr>                   
##  1 word_freq_make     "         continuous."  
##  2 word_freq_address  "      continuous."     
##  3 word_freq_all      "          continuous." 
##  4 word_freq_3d       "           continuous."
##  5 word_freq_our      "          continuous." 
##  6 word_freq_over     "         continuous."  
##  7 word_freq_remove   "       continuous."    
##  8 word_freq_internet "     continuous."      
##  9 word_freq_order    "        continuous."   
## 10 word_freq_mail     "         continuous."  
## #  with 47 more rows
…
spam_names <- c(spam_names, "semicolon", "parenthesis","bracket","exclamation","dollar","pound","length_avg", 
                "length_longest","length_total","spam_status")
names(spam) <- spam_names
spam %>% select(spam_status, everything())

## # A tibble: 4,601 x 58
##    spam_status  make address   all  `3d`   our  over remove internet order
##          <dbl> <dbl>   <dbl> <dbl> <dbl> <dbl> <dbl>  <dbl>    <dbl> <dbl>
##  1           1  0       0.64  0.64     0  0.32  0      0        0     0   
##  2           1  0.21    0.28  0.5      0  0.14  0.28   0.21     0.07  0   
##  3           1  0.06    0     0.71     0  1.23  0.19   0.19     0.12  0.64
##  4           1  0       0     0        0  0.63  0      0.31     0.63  0.31
##  5           1  0       0     0        0  0.63  0      0.31     0.63  0.31
##  6           1  0       0     0        0  1.85  0      0        1.85  0   
##  7           1  0       0     0        0  1.92  0      0        0     0   
##  8           1  0       0     0        0  1.88  0      0        1.88  0   
##  9           1  0.15    0     0.46     0  0.61  0      0.3      0     0.92
## 10           1  0.06    0.12  0.77     0  0.19  0.32   0.38     0     0.06
## #  with 4,591 more rows, and 48 more variables: mail <dbl>,
## #   receive <dbl>, will <dbl>, people <dbl>, report <dbl>,
## #   addresses <dbl>, free <dbl>, business <dbl>, email <dbl>, you <dbl>,
## #   credit <dbl>, your <dbl>, font <dbl>, `000` <dbl>, money <dbl>,
## #   hp <dbl>, hpl <dbl>, george <dbl>, `650` <dbl>, lab <dbl>, labs <dbl>,
## #   telnet <dbl>, `857` <dbl>, data <dbl>, `415` <dbl>, `85` <dbl>,
## #   technology <dbl>, `1999` <dbl>, parts <dbl>, pm <dbl>, direct <dbl>,
## #   cs <dbl>, meeting <dbl>, original <dbl>, project <dbl>, re <dbl>,
## #   edu <dbl>, table <dbl>, conference <dbl>, semicolon <dbl>,
…
accuracy <- (conf.matrix[2,1] + conf.matrix[1,2])/sum(conf.matrix)
accuracy

## [1] 0.09737014

Hitters

library(ISLR)
data(Hitters)
tibble::as_tibble(Hitters)

## # A tibble: 322 x 20
##    AtBat  Hits HmRun  Runs   RBI Walks Years CAtBat CHits CHmRun CRuns
##    <int> <int> <int> <int> <int> <int> <int>  <int> <int>  <int> <int>
##  1   293    66     1    30    29    14     1    293    66      1    30
##  2   315    81     7    24    38    39    14   3449   835     69   321
##  3   479   130    18    66    72    76     3   1624   457     63   224
##  4   496   141    20    65    78    37    11   5628  1575    225   828
##  5   321    87    10    39    42    30     2    396   101     12    48
##  6   594   169     4    74    51    35    11   4408  1133     19   501
##  7   185    37     1    23     8    21     2    214    42      1    30
##  8   298    73     0    24    24     7     3    509   108      0    41
##  9   323    81     6    26    32     8     2    341    86      6    32
## 10   401    92    17    49    66    65    13   5206  1332    253   784
## #  with 312 more rows, and 9 more variables: CRBI <int>, CWalks <int>,
## #   League <fct>, Division <fct>, PutOuts <int>, Assists <int>,
## #   Errors <int>, Salary <dbl>, NewLeague <fct>
…
## [1] 346.5834

sqrt(mse2)

## [1] 646.5636

Heart dataset

heart <- readr::read_csv("https://raw.githubusercontent.com/JWarmenhoven/ISLR-python/master/Notebooks/Data/Heart.csv")

## Warning: Missing column names filled in: 'X1' [1]

heart

## # A tibble: 303 x 15
##       X1   Age   Sex ChestPain RestBP  Chol   Fbs RestECG MaxHR ExAng
##    <dbl> <dbl> <dbl> <chr>      <dbl> <dbl> <dbl>   <dbl> <dbl> <dbl>
##  1     1    63     1 typical      145   233     1       2   150     0
##  2     2    67     1 asymptom    160   286     0       2   108     1
##  3     3    67     1 asymptom    120   229     0       2   129     1
##  4     4    37     1 nonangin    130   250     0       0   187     0
##  5     5    41     0 nontypic    130   204     0       2   172     0
##  6     6    56     1 nontypic    120   236     0       0   178     0
##  7     7    62     0 asymptom    140   268     0       2   160     0
##  8     8    57     0 asymptom    120   354     0       0   163     1
##  9     9    63     1 asymptom    130   254     0       2   147     0
## 10    10    53     1 asymptom    140   203     1       2   155     1
## #  with 293 more rows, and 5 more variables: Oldpeak <dbl>, Slope <dbl>,
## #   Ca <dbl>, Thal <chr>, AHD <chr>
…
