Introduction to Data Science
…
```
## [[1]]
## [1] "Tread lightly, she is near\r\n"  "\tUnder the snow\r\n"           
## [3] "Speak gently, she can hear\r\n"  "\tThe daisies grow.\r\n"        
## [5] "All her bright golden hair\r\n"  "\tTarnished with rust\r\n"      
## [7] "She that was young and fair\r\n" "\tFallen to dust."
```

```r
text_df <- tibble(lines = 1:length(text_lines[[1]]), text = text_lines[[1]])
text_df
```

```
## # A tibble: 8 × 2
##   lines text                            
##   <int> <chr>                           
## 1     1 "Tread lightly, she is near\r\n"
## 2     2 "\tUnder the snow\r\n"          
## 3     3 "Speak gently, she can hear\r\n"
## 4     4 "\tThe daisies grow.\r\n"       
## 5     5 "All her bright golden hair\r\n"
## 6     6 "\tTarnished with rust\r\n"     
## # … with 2 more rows
```

---
class: clear, middle
We can now tokenize the above two stanzas into words.

```r
tokens <- text_df %>% unnest_tokens(words, text)
tokens
```

```
## # A tibble: 33 × 2
##   lines words  
##   <int> <chr>  
## 1     1 tread  
## 2     1 lightly
## 3     1 she    
## 4     1 is     
## 5     1 near   
## 6     2 under  
## # … with 27 more rows
```
Other tokenization are also possible, e.g.,

```r
text_df %>% unnest_tokens(ngrams, text, token = "ngrams", n = 3)
```

```
## # A tibble: 17 × 2
##   lines ngrams           
##   <int> <chr>            
## 1     1 tread lightly she
## 2     1 lightly she is   
## 3     1 she is near      
## 4     2 under the snow   
## 5     3 speak gently she 
## 6     3 gently she can   
## # … with 11 more rows
```

---
# Jane Austen and tokenization.
The following is an abridged presentation of Chapter 1 of [Text Mining with R](https://www.tidytextmining.com/).

```r
library(janeaustenr) ## The package contains the text of 6 Jane Austen's novels.
library(dplyr)
austen_books()
```

```
## # A tibble: 73,422 × 2
##   text                    book               
## * <chr>                   <fct>              
## 1 "SENSE AND SENSIBILITY" Sense & Sensibility
## 2 ""                      Sense & Sensibility
## 3 "by Jane Austen"        Sense & Sensibility
## 4 ""                      Sense & Sensibility
## 5 "(1811)"                Sense & Sensibility
## 6 ""                      Sense & Sensibility
## # … with 73,416 more rows
```
…
original_books <- austen_books() %>%
  group_by(book) %>%
  mutate(linenumber = row_number(),
         chapter = cumsum(str_detect(text, 
                                     regex("^chapter [\\divxlc]",
                                           ignore_case = TRUE)))) %>%
  ungroup()

original_books
```

```
## # A tibble: 73,422 × 4
##   text                    book                linenumber chapter
##   <chr>                   <fct>                    <int>   <int>
## 1 "SENSE AND SENSIBILITY" Sense & Sensibility          1       0
## 2 ""                      Sense & Sensibility          2       0
## 3 "by Jane Austen"        Sense & Sensibility          3       0
## 4 ""                      Sense & Sensibility          4       0
## 5 "(1811)"                Sense & Sensibility          5       0
## 6 ""                      Sense & Sensibility          6       0
## # … with 73,416 more rows
```
---
class: clear
We next tokenize the text into words and remove the common stop words.

```r
data(stop_words) ## Part of the tidytext package.
jausten_tokenized <- original_books %>% unnest_tokens(word, text) %>% 
  anti_join(stop_words)
jausten_tokenized
```

```
## # A tibble: 217,609 × 4
##   book                linenumber chapter word       
##   <fct>                    <int>   <int> <chr>      
## 1 Sense & Sensibility          1       0 sense      
## 2 Sense & Sensibility          1       0 sensibility
## 3 Sense & Sensibility          3       0 jane       
## 4 Sense & Sensibility          3       0 austen     
## 5 Sense & Sensibility          5       0 1811       
## 6 Sense & Sensibility         10       1 chapter    
## # … with 217,603 more rows
```
---
Given this tidy representation, it is easy to do some data exploration. For example, what are the most common words ?

```r
words_freq <- jausten_tokenized %>% count(word, sort = TRUE)
words_freq
```

```
## # A tibble: 13,914 × 2
##   word      n
##   <chr> <int>
## 1 miss   1855
## 2 time   1337
## 3 fanny   862
## 4 dear    822
## 5 lady    817
## 6 sir     806
## # … with 13,908 more rows
```
…
---
We now see, for each author, how likely a specific word is used

```r
library(tidyr)
frequency <- frequency %>% group_by(author, word) %>% summarise(n = n()) %>%
  mutate(proportion = n/sum(n))%>%  ## grouped mutate! 
  select(-n) %>% pivot_wider(names_from = author, values_from = proportion)
frequency
```

```
## # A tibble: 28,626 × 4
##   word       `Bronte sisters` `H.G. Wells` `Jane Austen`
##   <chr>                 <dbl>        <dbl>         <dbl>
## 1 a                0.0000587     0.0000148    0.00000919
## 2 aback            0.00000391    0.0000148   NA         
## 3 abaht            0.00000391   NA           NA         
## 4 abandon          0.0000313     0.0000148   NA         
## 5 abandoned        0.0000900     0.000178     0.00000460
## 6 abandoning       0.00000391    0.0000445   NA         
## # … with 28,620 more rows
```
…
