Introduction to Data Science
…
We illustrate these techniques using the **gapminder** dataframe.

```r
library(gapminder)
gapminder
```

```
## # A tibble: 1,704 x 6
##   country     continent  year lifeExp      pop gdpPercap
##   <fct>       <fct>     <int>   <dbl>    <int>     <dbl>
## 1 Afghanistan Asia       1952    28.8  8425333      779.
## 2 Afghanistan Asia       1957    30.3  9240934      821.
## 3 Afghanistan Asia       1962    32.0 10267083      853.
## 4 Afghanistan Asia       1967    34.0 11537966      836.
## 5 Afghanistan Asia       1972    36.1 13079460      740.
## 6 Afghanistan Asia       1977    38.4 14880372      786.
## # … with 1,698 more rows
```
---
class: clear
.pull-left[

```r
library(dplyr)
library(tidyr)
nested <- gapminder %>% 
  group_by(country,continent) %>% 
  nest()
nested
```

```
## # A tibble: 142 x 3
##   country     continent data             
##   <fct>       <fct>     <list>           
## 1 Afghanistan Asia      <tibble [12 × 4]>
## 2 Albania     Europe    <tibble [12 × 4]>
## 3 Algeria     Africa    <tibble [12 × 4]>
## 4 Angola      Africa    <tibble [12 × 4]>
## 5 Argentina   Americas  <tibble [12 × 4]>
## 6 Australia   Oceania   <tibble [12 × 4]>
## # … with 136 more rows
```
…
```r
library(purrr)
country_model <- function(df){
  lm(lifeExp ~ year, data = df)
}
nested_lm <- nested %>% mutate(model = map(data, country_model))
nested_lm
```

```
## # A tibble: 142 x 4
##   country     continent data              model 
##   <fct>       <fct>     <list>            <list>
## 1 Afghanistan Asia      <tibble [12 × 4]> <lm>  
## 2 Albania     Europe    <tibble [12 × 4]> <lm>  
## 3 Algeria     Africa    <tibble [12 × 4]> <lm>  
## 4 Angola      Africa    <tibble [12 × 4]> <lm>  
## 5 Argentina   Americas  <tibble [12 × 4]> <lm>  
## 6 Australia   Oceania   <tibble [12 × 4]> <lm>  
## # … with 136 more rows
```
…
```r
nested_lm %>% filter(continent == "Europe")
```

```
## # A tibble: 30 x 4
##   country                continent data              model 
##   <fct>                  <fct>     <list>            <list>
## 1 Albania                Europe    <tibble [12 × 4]> <lm>  
## 2 Austria                Europe    <tibble [12 × 4]> <lm>  
## 3 Belgium                Europe    <tibble [12 × 4]> <lm>  
## 4 Bosnia and Herzegovina Europe    <tibble [12 × 4]> <lm>  
## 5 Bulgaria               Europe    <tibble [12 × 4]> <lm>  
## 6 Croatia                Europe    <tibble [12 × 4]> <lm>  
## # … with 24 more rows
```
---
class: clear

```r
nested_lm %>% arrange(continent,country)
```

```
## # A tibble: 142 x 4
##   country      continent data              model 
##   <fct>        <fct>     <list>            <list>
## 1 Algeria      Africa    <tibble [12 × 4]> <lm>  
## 2 Angola       Africa    <tibble [12 × 4]> <lm>  
## 3 Benin        Africa    <tibble [12 × 4]> <lm>  
## 4 Botswana     Africa    <tibble [12 × 4]> <lm>  
## 5 Burkina Faso Africa    <tibble [12 × 4]> <lm>  
## 6 Burundi      Africa    <tibble [12 × 4]> <lm>  
## # … with 136 more rows
```
…
```
## # A tibble: 1 x 2
##   intercept slope
##       <dbl> <dbl>
## 1     -508. 0.275
```
---
class: clear

```r
nested_lm
```

```
## # A tibble: 142 x 5
##   country     continent data              model  coefficients    
##   <fct>       <fct>     <list>            <list> <list>          
## 1 Afghanistan Asia      <tibble [12 × 4]> <lm>   <tibble [1 × 2]>
## 2 Albania     Europe    <tibble [12 × 4]> <lm>   <tibble [1 × 2]>
## 3 Algeria     Africa    <tibble [12 × 4]> <lm>   <tibble [1 × 2]>
## 4 Angola      Africa    <tibble [12 × 4]> <lm>   <tibble [1 × 2]>
## 5 Argentina   Americas  <tibble [12 × 4]> <lm>   <tibble [1 × 2]>
## 6 Australia   Oceania   <tibble [12 × 4]> <lm>   <tibble [1 × 2]>
## # … with 136 more rows
```

```r
nested_lm %>% unnest(coefficients)
```

```
## # A tibble: 142 x 6
##   country     continent data              model  intercept slope
##   <fct>       <fct>     <list>            <list>     <dbl> <dbl>
## 1 Afghanistan Asia      <tibble [12 × 4]> <lm>       -508. 0.275
## 2 Albania     Europe    <tibble [12 × 4]> <lm>       -594. 0.335
## 3 Algeria     Africa    <tibble [12 × 4]> <lm>      -1068. 0.569
## 4 Angola      Africa    <tibble [12 × 4]> <lm>       -377. 0.209
## 5 Argentina   Americas  <tibble [12 × 4]> <lm>       -390. 0.232
## 6 Australia   Oceania   <tibble [12 × 4]> <lm>       -376. 0.228
## # … with 136 more rows
```
